Tutorial 02
…
Combining a few different functions, select all but the pop column and create a new one (named norm_cases) that shows the normalized number of cases by date.

Using the summarise() (or summarize()) function, get the average and variance for the variables n_cases and n_deaths, as well as the total number of rows.

You will notice that the results from the above item do not seem very impressive. However, we can combine summarize() with group_by() to get more meaningful statistics. For instance, obtain similar results as before, but for each region.

And as in SQL, in tidyverse, there are also functions that make joining two tibbles possible. From the documentation page, we have inner_join(), left_join, right_join() and full_join(). As an example, consider the following data set, which shows the (fake) mean temperature (in Celsius) in almost all regions and studied months in Saudi Arabia. Assuming the previous data set is in data,

set.seed(0)
n <- (nrow(data) - 3)
new_data <- tibble(id = 1:n, date = data$date[1:n], region = data$region[1:n], temperature = round(rnorm(n, 30, 2), 1))
new_data

## # A tibble: 465 × 4
##       id date       region           temperature
##    <int> <date>     <chr>                  <dbl>
##  1     1 2018-01-01 Eastern                 32.5
##  2     2 2018-01-01 Najran                  29.3
##  3     3 2018-01-01 Northern Borders        32.7
##  4     4 2018-01-01 Ha’il                   32.5
##  5     5 2018-01-01 Riyadh                  30.8
##  6     6 2018-01-01 Asir                    26.9
##  7     7 2018-01-01 Mecca                   28.1
##  8     8 2018-01-01 Tabuk                   29.4
##  9     9 2018-01-01 Medina                  30  
## 10    10 2018-01-01 Qasim                   34.8
## # … with 455 more rows
…
